M48
INCH
T01C0.02
T02C0.022
T03C0.0335
T04C0.035
T05C0.0354
T06C0.039
T07C0.0394
T08C0.0433
%
T01
X+015073Y+015299
X+015468Y+015674
X+016265Y+016636
X+014296Y+016355
X+012948Y+016355
X+012553Y+016749
X+013365Y+017816
X+012990Y+018211
X+012430Y+019662
X+010780Y+018211
X+008350Y+016786
X+015498Y+019815
T02
X+016940Y+018690
X+016940Y+015690
X+016440Y+013940
X+016440Y+010940
X+013190Y+007690
X+010190Y+007690
X+010690Y+010940
X+010690Y+013940
X+009940Y+015690
X+009940Y+018690
T03
X+022190Y+020690
X+019190Y+020690
X+007690Y+020440
X+004690Y+020440
X+004790Y+006190
X+007790Y+006190
X+018940Y+006440
X+021940Y+006440
T04
X+011690Y+005190
X+012690Y+005190
T05
X+009190Y+005190
X+010190Y+005190
X+008690Y+007190
X+008690Y+008190
X+008690Y+009190
X+008690Y+010190
X+008690Y+011190
X+008690Y+012190
X+008690Y+013190
X+008690Y+014190
X+006690Y+014190
X+006690Y+013190
X+006690Y+012190
X+005690Y+012190
X+005690Y+013190
X+005690Y+014190
X+006190Y+017440
X+007190Y+017440
X+007190Y+018940
X+006190Y+018940
X+005190Y+017440
X+004940Y+021940
X+005940Y+021940
X+008940Y+020440
X+009940Y+020440
X+010940Y+020440
X+011940Y+020440
X+012940Y+020440
X+013940Y+020440
X+014940Y+020440
X+015940Y+020440
X+016940Y+020440
X+017940Y+020440
X+020940Y+019190
X+021940Y+019190
X+021940Y+017690
X+020940Y+017690
X+019940Y+017690
X+019940Y+016190
X+020940Y+016190
X+021940Y+016190
X+018190Y+014190
X+018190Y+013190
X+018190Y+012190
X+018190Y+011190
X+018190Y+010190
X+018190Y+009190
X+018190Y+008190
X+018190Y+007190
X+019440Y+007940
X+020440Y+007940
X+021940Y+007940
X+021940Y+008940
X+021940Y+009940
X+019940Y+010440
X+019940Y+009440
X+020940Y+004940
X+021940Y+004940
X+015371Y+008690
X+014190Y+008690
X+007190Y+007440
X+006190Y+007440
X+005190Y+007440
X+005190Y+008940
X+006190Y+008940
X+005940Y+004940
X+004940Y+004940
X+020940Y+021940
X+021940Y+021940
T06
X+007740Y+004740
X+019140Y+004740
X+019140Y+022140
X+007740Y+022140
T07
X+013440Y+013440
T08
X+021190Y+014190
X+021190Y+013190
X+021190Y+012190
T00
M30
