G04 DipTrace 3.2.0.1*
G04 Top.gbr*
%MOIN*%
G04 #@! TF.FileFunction,Copper,L1,Top*
G04 #@! TF.Part,Single*
G04 #@! TA.AperFunction,Conductor*
%ADD13C,0.012992*%
%ADD14C,0.017*%
G04 #@! TA.AperFunction,ComponentPad*
%ADD15C,0.05*%
G04 #@! TA.AperFunction,CopperBalancing*
%ADD16C,0.025*%
G04 #@! TA.AperFunction,ComponentPad*
%ADD17R,0.059055X0.059055*%
%ADD18C,0.059055*%
%ADD19R,0.062992X0.062992*%
%ADD20C,0.062992*%
%ADD21C,0.05*%
%ADD22C,0.059055*%
%ADD23R,0.074803X0.074803*%
%ADD24C,0.074803*%
%ADD26R,0.066929X0.019685*%
%ADD27R,0.019685X0.066929*%
G04 #@! TA.AperFunction,ViaPad*
%ADD28C,0.04*%
%FSLAX26Y26*%
G04*
G70*
G90*
G75*
G01*
G04 Top*
%LPD*%
X1519591Y1624118D2*
D13*
X1712500D1*
X1738488Y1598130D1*
Y1269988D1*
X1712504Y1244004D1*
X1042024D1*
X918012Y1368016D1*
X618016D1*
X569000Y1319000D1*
X1738488Y1269988D2*
X1764472Y1244004D1*
Y973528D1*
X1819000Y919000D1*
Y719000D2*
X1501008D1*
X1475024Y744984D1*
Y1112503D1*
X1449039Y1138488D1*
X1029027D1*
X958555Y1068016D1*
X545968D1*
X519984Y1094000D1*
Y1369984D1*
X569000Y1419000D1*
X1507307Y1529945D2*
Y1549000D1*
X1487307Y1569000D1*
X1464472D1*
X1819000Y819000D2*
X1619118D1*
X1593134Y844984D1*
Y1142032D1*
X1567150Y1168016D1*
X819984D1*
X669000Y1319000D1*
X1429626Y1635457D2*
X1432976Y1632107D1*
Y1569000D1*
X1694000D2*
X1589472Y1464472D1*
X1301481D1*
X1275496Y1490457D1*
Y1569000D1*
X1994000Y1769000D2*
X1894000Y1869000D1*
X1694000D1*
X1994000Y944000D2*
X1943016Y994984D1*
Y1293012D1*
X1969004Y1319000D1*
X2119000D1*
X719000Y1894000D2*
Y1994000D1*
X769000Y2044000D1*
X1894000Y644000D2*
X1944000D1*
X2094000Y494000D1*
X779000Y619000D2*
X869000D1*
X1019000Y769000D1*
X1943016Y1293012D2*
X1917028Y1319000D1*
X1819000D1*
X2094000Y1919000D2*
X1944984D1*
X1919000Y1944984D1*
X1598527D1*
X1572543Y1919000D1*
Y1750102D1*
X1519591D1*
X1919000Y1944984D2*
Y2069000D1*
X2194000Y1619000D2*
X2143016Y1669984D1*
Y1869984D1*
X2094000Y1919000D1*
X2119000Y1319000D2*
X2194000D1*
Y1619000D1*
X1188882Y1781598D2*
X1241835D1*
Y1718606D1*
X1188882D1*
X994000Y2044000D2*
X1043016Y1994984D1*
Y1927957D1*
X1038488Y1923429D1*
Y1781598D1*
X1188882D1*
X769000Y2044000D2*
X818016Y1994984D1*
X944984D1*
X994000Y2044000D1*
X1188882Y1750102D2*
D14*
X1103487D1*
X1066476Y1713091D1*
X928481D1*
X894000Y1678610D1*
X834992D1*
X2094000Y1769000D2*
X2010606Y1685606D1*
X1844984D1*
X1813480Y1717110D1*
X1680020D1*
X1626516Y1663606D1*
X1994000Y1044000D2*
X2046988Y991012D1*
Y923992D1*
X2076980Y894000D1*
X2194000D1*
X1626516Y1663606D2*
Y1718606D1*
X1519591D1*
X1066476Y1713091D2*
X1092457Y1687110D1*
X1188882D1*
X894000Y2044000D2*
X971004Y2121004D1*
X1494000D1*
Y2044000D1*
X1819000Y1419000D2*
Y1659622D1*
X1844984Y1685606D1*
X834992Y1678610D2*
X669000Y1512618D1*
Y1419000D1*
X1626516Y1663606D2*
X1618524Y1655614D1*
X1519591D1*
X1626516Y1663606D2*
D3*
X1644000Y1394000D2*
D13*
X1599512Y1438488D1*
X1269985D1*
X1244000Y1464473D1*
Y1569000D1*
X2194000Y994000D2*
X2243016Y944984D1*
Y693016D1*
X2194000Y644000D1*
X2144984Y693016D1*
Y768016D1*
X2119000Y794000D1*
X2044000D1*
X1644000Y1094000D2*
Y894000D1*
X1669984Y868016D1*
X1855516D1*
X1880516Y843016D1*
X2144984D1*
X2194000Y794000D1*
X1294827Y1635457D2*
X1369984D1*
Y1569000D1*
X1077976Y1821087D2*
X1101480Y1844591D1*
X1188882D1*
X1069000Y1094000D2*
X943016Y968016D1*
X744985D1*
X719000Y942031D1*
Y744000D1*
X479000Y619000D2*
Y668016D1*
X493016D1*
X519000Y694000D1*
Y744000D1*
X994000Y1869000D2*
X869000Y1744000D1*
X719000D1*
X1419000Y869000D2*
D15*
X1163528D1*
X1093528Y799000D1*
Y593528D1*
X1019000Y519000D1*
X1294000Y2044000D2*
D13*
X1369984Y1968016D1*
Y1899709D1*
X1394000Y2044000D2*
X1395968Y2042032D1*
Y1968925D1*
X1401480Y1963413D1*
Y1899709D1*
X1319000Y769000D2*
X1269000Y719000D1*
Y519000D1*
X1255339Y1674945D2*
X1406988D1*
X1432976Y1700933D1*
Y1899709D1*
X1546795Y1567417D2*
Y1490457D1*
X1401480D1*
Y1569000D1*
X1549791Y1981484D2*
X1469001D1*
X1443016Y2007469D1*
Y2067031D1*
X1417031Y2093016D1*
X1169001D1*
X1143016Y2067031D1*
Y1925692D1*
X1168999Y1899709D1*
X1244000D1*
X1336469Y1781602D2*
X1338488Y1783621D1*
Y1899709D1*
X1243016Y1966165D2*
X1306992D1*
Y1899709D1*
X1298996Y1821091D2*
X1275496Y1844591D1*
Y1899709D1*
D28*
X1507307Y1529945D3*
X1429626Y1635457D3*
X1626516Y1663606D3*
X834992Y1678610D3*
X1294827Y1635457D3*
X1077976Y1821087D3*
X1255339Y1674945D3*
X1546795Y1567417D3*
X1549791Y1981484D3*
X1336469Y1781602D3*
X1243016Y1966165D3*
X1298996Y1821091D3*
X564524Y2230631D2*
D16*
X715943D1*
X832076D2*
X1855948D1*
X1972081D2*
X2123464D1*
X564524Y2205762D2*
X714077D1*
X833907D2*
X1854082D1*
X1973911D2*
X2123464D1*
X564524Y2180894D2*
X723874D1*
X824110D2*
X1863878D1*
X1964115D2*
X2123464D1*
X564524Y2156025D2*
X769805D1*
X778193D2*
X937169D1*
X1527835D2*
X2123464D1*
X564524Y2131156D2*
X912194D1*
X1542404D2*
X2123464D1*
X539513Y2106287D2*
X864145D1*
X1543516D2*
X1564138D1*
X1623861D2*
X1664147D1*
X1723834D2*
X1764156D1*
X1823844D2*
X2148476D1*
X539513Y2081419D2*
X834684D1*
X1853305D2*
X2148476D1*
X539513Y2056550D2*
X824636D1*
X975506D2*
X1024655D1*
X1863352D2*
X2148476D1*
X539513Y2031681D2*
X824600D1*
X963413D2*
X1024583D1*
X1863388D2*
X2148476D1*
X539513Y2006812D2*
X834540D1*
X953473D2*
X1034523D1*
X1853448D2*
X2148476D1*
X539513Y1981944D2*
X863642D1*
X924371D2*
X1063625D1*
X1624363D2*
X1663645D1*
X1724373D2*
X1763618D1*
X1824382D2*
X2123464D1*
X435018Y1957075D2*
X548472D1*
X689544D2*
X1095526D1*
X1605452D2*
X2123464D1*
X435018Y1932206D2*
X548472D1*
X689544D2*
X985397D1*
X1002591D2*
X1095526D1*
X1583814D2*
X1685390D1*
X1702596D2*
X2123464D1*
X435018Y1907337D2*
X548472D1*
X689544D2*
X940865D1*
X1047130D2*
X1099437D1*
X1515311D2*
X1640894D1*
X1920049D2*
X2123464D1*
X435018Y1882469D2*
X548472D1*
X689544D2*
X929454D1*
X1058542D2*
X1074677D1*
X1594041D2*
X1629447D1*
X1946675D2*
X2123464D1*
X435018Y1857600D2*
X548472D1*
X689544D2*
X916464D1*
X1594041D2*
X1629016D1*
X1971543D2*
X2123464D1*
X435018Y1832731D2*
X548472D1*
X689544D2*
X891596D1*
X1594041D2*
X1639387D1*
X2120283D2*
X2167710D1*
X2220292D2*
X2253006D1*
X435018Y1807862D2*
X493066D1*
X544931D2*
X593076D1*
X789518D2*
X866728D1*
X1594041D2*
X1674338D1*
X1713643D2*
X1888997D1*
X435018Y1782993D2*
X460771D1*
X974142D2*
X1031078D1*
X1594041D2*
X1913865D1*
X435018Y1758125D2*
X449970D1*
X1263333D2*
X1280401D1*
X1838915D2*
X1923482D1*
X435018Y1733256D2*
X449324D1*
X1263333D2*
X1301035D1*
X1371918D2*
X1385470D1*
X1866295D2*
X1923482D1*
X435018Y1708387D2*
X458546D1*
X2127388D2*
X2160605D1*
X2227397D2*
X2253006D1*
X435018Y1683518D2*
X485351D1*
X552646D2*
X585361D1*
X2118058D2*
X2253006D1*
X435018Y1658650D2*
X746050D1*
X942994D2*
X1051963D1*
X1743858D2*
X1769503D1*
X2151789D2*
X2253006D1*
X435018Y1633781D2*
X721182D1*
X910627D2*
X1114401D1*
X1868484D2*
X1925097D1*
X2162913D2*
X2253006D1*
X435018Y1608912D2*
X696314D1*
X834265D2*
X942121D1*
X1045874D2*
X1114401D1*
X1868484D2*
X1924235D1*
X2163775D2*
X2253006D1*
X435018Y1584043D2*
X671447D1*
X809398D2*
X929813D1*
X1058183D2*
X1114401D1*
X1868484D2*
X1933135D1*
X2154875D2*
X2253006D1*
X435018Y1559175D2*
X646579D1*
X784530D2*
X928772D1*
X1059223D2*
X1193167D1*
X1607211D2*
X1618036D1*
X1868484D2*
X1959115D1*
X2028886D2*
X2059124D1*
X2128895D2*
X2253006D1*
X435018Y1534306D2*
X624797D1*
X759662D2*
X938317D1*
X1049678D2*
X1193167D1*
X1868484D2*
X2253006D1*
X435018Y1509437D2*
X619486D1*
X734794D2*
X969501D1*
X1018495D2*
X1193167D1*
X1868484D2*
X2253006D1*
X435018Y1484568D2*
X548364D1*
X589643D2*
X619486D1*
X718503D2*
X1196504D1*
X1675714D2*
X1690988D1*
X1868484D2*
X2040608D1*
X2197398D2*
X2253006D1*
X435018Y1459699D2*
X511977D1*
X726003D2*
X1196755D1*
X1650846D2*
X1690988D1*
X1876019D2*
X2040608D1*
X2197398D2*
X2253006D1*
X435018Y1434831D2*
X500351D1*
X737665D2*
X1017873D1*
X1120119D2*
X1207664D1*
X1887646D2*
X2040608D1*
X2197398D2*
X2253006D1*
X435018Y1409962D2*
X493820D1*
X936787D2*
X1005026D1*
X1132965D2*
X1232388D1*
X1888938D2*
X2040608D1*
X2197398D2*
X2253006D1*
X435018Y1385093D2*
X475088D1*
X967073D2*
X1003627D1*
X1134365D2*
X1300317D1*
X1387707D2*
X1578635D1*
X1880469D2*
X2040608D1*
X2197398D2*
X2253006D1*
X435018Y1360224D2*
X472505D1*
X991941D2*
X1012741D1*
X1125286D2*
X1285640D1*
X1402384D2*
X1587714D1*
X1855745D2*
X2040608D1*
X2197398D2*
X2253006D1*
X435018Y1335356D2*
X472505D1*
X1016808D2*
X1042130D1*
X1095861D2*
X1283954D1*
X1404035D2*
X1617139D1*
X1670869D2*
X1690988D1*
X1785986D2*
X2253006D1*
X435018Y1310487D2*
X472505D1*
X743658D2*
X799015D1*
X1041676D2*
X1293930D1*
X1394059D2*
X1690988D1*
X1785986D2*
X2253006D1*
X435018Y1285618D2*
X472505D1*
X768526D2*
X807233D1*
X1789000D2*
X1802732D1*
X1835291D2*
X2080116D1*
X2157889D2*
X2253006D1*
X435018Y1260749D2*
X472505D1*
X793393D2*
X831347D1*
X906644D2*
X959130D1*
X1875194D2*
X2053096D1*
X2184874D2*
X2253006D1*
X435018Y1235881D2*
X472505D1*
X637405D2*
X685980D1*
X818261D2*
X983998D1*
X1887395D2*
X2042510D1*
X2195496D2*
X2253006D1*
X435018Y1211012D2*
X472505D1*
X639055D2*
X710848D1*
X1889045D2*
X2041003D1*
X2196967D2*
X2253006D1*
X435018Y1186143D2*
X472505D1*
X631053D2*
X735715D1*
X1615141D2*
X1716968D1*
X1881079D2*
X2048072D1*
X2189934D2*
X2253006D1*
X435018Y1161274D2*
X472505D1*
X607477D2*
X760583D1*
X1636313D2*
X1716968D1*
X1874799D2*
X2067234D1*
X2170772D2*
X2253006D1*
X435018Y1136406D2*
X472505D1*
X567466D2*
X785451D1*
X1693763D2*
X1716968D1*
X1887251D2*
X2253006D1*
X435018Y1111537D2*
X472505D1*
X1522524D2*
X1545621D1*
X1707543D2*
X1716968D1*
X1889117D2*
X1921508D1*
X2066492D2*
X2253006D1*
X435018Y1086668D2*
X473079D1*
X1134580D2*
X1427527D1*
X1522524D2*
X1545621D1*
X1881366D2*
X1921508D1*
X2066492D2*
X2253006D1*
X435018Y1061799D2*
X486033D1*
X1126219D2*
X1427527D1*
X1522524D2*
X1545621D1*
X1701227D2*
X1716968D1*
X1874369D2*
X1921508D1*
X2066492D2*
X2185939D1*
X2202080D2*
X2253006D1*
X435018Y1036930D2*
X510937D1*
X1099342D2*
X1427527D1*
X1522524D2*
X1545621D1*
X1691503D2*
X1716968D1*
X1887107D2*
X1921508D1*
X2070045D2*
X2138715D1*
X435018Y1012062D2*
X733275D1*
X1053195D2*
X1427527D1*
X1522524D2*
X1545621D1*
X1691503D2*
X1716968D1*
X1889189D2*
X1921508D1*
X2091504D2*
X2125905D1*
X435018Y987193D2*
X698037D1*
X1028327D2*
X1427527D1*
X1522524D2*
X1545621D1*
X1691503D2*
X1716968D1*
X1881617D2*
X1921508D1*
X2096492D2*
X2123823D1*
X435018Y962324D2*
X676327D1*
X1003459D2*
X1427527D1*
X1522524D2*
X1545621D1*
X1691503D2*
X1718404D1*
X1873938D2*
X1997475D1*
X2096492D2*
X2131287D1*
X435018Y937455D2*
X448462D1*
X589535D2*
X671519D1*
X978592D2*
X1427527D1*
X1522524D2*
X1545621D1*
X1691503D2*
X1734408D1*
X1886964D2*
X1997475D1*
X435018Y912587D2*
X448462D1*
X589535D2*
X671519D1*
X766480D2*
X798764D1*
X939227D2*
X1114796D1*
X1889225D2*
X1998910D1*
X435018Y887718D2*
X448462D1*
X589535D2*
X671519D1*
X766480D2*
X806084D1*
X931906D2*
X1089928D1*
X435018Y862849D2*
X448462D1*
X589535D2*
X671519D1*
X766480D2*
X814481D1*
X923509D2*
X1065060D1*
X435018Y837980D2*
X448462D1*
X589535D2*
X671519D1*
X766480D2*
X801168D1*
X936822D2*
X1040910D1*
X435018Y813112D2*
X671519D1*
X766480D2*
X798728D1*
X939263D2*
X1029104D1*
X435018Y788243D2*
X464826D1*
X789518D2*
X805833D1*
X932193D2*
X1027526D1*
X1175058D2*
X1256000D1*
X1382002D2*
X1427527D1*
X1522524D2*
X1583730D1*
X1882191D2*
X1973469D1*
X435018Y763374D2*
X451297D1*
X789518D2*
X814948D1*
X923079D2*
X1027526D1*
X1159520D2*
X1247244D1*
X1384765D2*
X1427527D1*
X1873077D2*
X1973469D1*
X435018Y738505D2*
X448678D1*
X789518D2*
X801312D1*
X936679D2*
X1027526D1*
X1159520D2*
X1225965D1*
X1377193D2*
X1427993D1*
X1886677D2*
X1973469D1*
X435018Y713636D2*
X455639D1*
X789518D2*
X798692D1*
X939298D2*
X1027526D1*
X1159520D2*
X1221515D1*
X1352612D2*
X1440230D1*
X1889332D2*
X2097484D1*
X566175Y688768D2*
X576766D1*
X789518D2*
X805546D1*
X932445D2*
X1027526D1*
X1159520D2*
X1221515D1*
X1316513D2*
X1465097D1*
X1882442D2*
X2097700D1*
X554943Y663899D2*
X826610D1*
X911381D2*
X1027526D1*
X1159520D2*
X1221515D1*
X1316513D2*
X1776608D1*
X1861378D2*
X2108178D1*
X549524Y639030D2*
X1027526D1*
X1159520D2*
X1221515D1*
X1316513D2*
X2123464D1*
X549524Y614161D2*
X1021856D1*
X1159520D2*
X1221515D1*
X1316513D2*
X2123464D1*
X549524Y589293D2*
X996988D1*
X1159376D2*
X1221515D1*
X1316513D2*
X2123464D1*
X549524Y564424D2*
X965876D1*
X1339515D2*
X2253006D1*
X564524Y539555D2*
X951666D1*
X1339515D2*
X2123464D1*
X564524Y514686D2*
X730153D1*
X817830D2*
X948616D1*
X1339515D2*
X1870158D1*
X1957835D2*
X2123464D1*
X564524Y489818D2*
X715692D1*
X832292D2*
X955039D1*
X1082943D2*
X1105035D1*
X1339515D2*
X1855697D1*
X1972296D2*
X2123464D1*
X564524Y464949D2*
X714221D1*
X833799D2*
X975206D1*
X1062812D2*
X1125202D1*
X1339515D2*
X1854225D1*
X1973804D2*
X2123464D1*
X564524Y440080D2*
X724448D1*
X823536D2*
X1864452D1*
X1963541D2*
X2123464D1*
X1081054Y491243D2*
X1077003Y483456D1*
X1070729Y474820D1*
X1063180Y467271D1*
X1054544Y460997D1*
X1045033Y456151D1*
X1034881Y452852D1*
X1024337Y451182D1*
X1013663D1*
X1003119Y452852D1*
X992967Y456151D1*
X983456Y460997D1*
X974820Y467271D1*
X967271Y474820D1*
X960997Y483456D1*
X956151Y492967D1*
X952852Y503119D1*
X951182Y513663D1*
Y524337D1*
X952852Y534881D1*
X956151Y545033D1*
X960997Y554544D1*
X967271Y563180D1*
X974820Y570729D1*
X983456Y577003D1*
X991243Y581054D1*
X1030048Y619851D1*
X1030028Y799000D1*
X1030810Y808934D1*
X1033136Y818623D1*
X1036949Y827828D1*
X1042155Y836324D1*
X1048627Y843901D1*
X1122288Y917286D1*
X1130349Y923143D1*
X1139228Y927666D1*
X1148704Y930746D1*
X1158546Y932304D1*
X1181901Y932500D1*
X1394586D1*
X1403119Y935148D1*
X1413663Y936818D1*
X1424337D1*
X1430031Y936113D1*
X1430028Y1093527D1*
X1132505Y1093492D1*
X1131718Y1084066D1*
X1129392Y1074377D1*
X1125579Y1065172D1*
X1120373Y1056676D1*
X1113901Y1049099D1*
X1106324Y1042627D1*
X1097828Y1037421D1*
X1088623Y1033608D1*
X1078934Y1031282D1*
X1069136Y1030505D1*
X972239Y933801D1*
X966526Y929651D1*
X960235Y926445D1*
X953520Y924263D1*
X946546Y923159D1*
X936880Y923020D1*
X936818Y913663D1*
X935148Y903119D1*
X931849Y892967D1*
X927003Y883456D1*
X920729Y874820D1*
X915096Y869042D1*
X920729Y863180D1*
X927003Y854544D1*
X931849Y845033D1*
X935148Y834881D1*
X936818Y824337D1*
Y813663D1*
X935148Y803119D1*
X931849Y792967D1*
X927003Y783456D1*
X920729Y774820D1*
X915096Y769042D1*
X920729Y763180D1*
X927003Y754544D1*
X931849Y745033D1*
X935148Y734881D1*
X936818Y724337D1*
Y713663D1*
X935148Y703119D1*
X931849Y692967D1*
X927003Y683456D1*
X920729Y674820D1*
X913180Y667271D1*
X904544Y660997D1*
X895033Y656151D1*
X884881Y652852D1*
X874337Y651182D1*
X863663D1*
X853119Y652852D1*
X842967Y656151D1*
X833456Y660997D1*
X824820Y667271D1*
X817271Y674820D1*
X810997Y683456D1*
X806151Y692967D1*
X802852Y703119D1*
X801182Y713663D1*
Y724337D1*
X802852Y734881D1*
X806151Y745033D1*
X810997Y754544D1*
X817271Y763180D1*
X822904Y768958D1*
X817271Y774820D1*
X810997Y783456D1*
X806151Y792967D1*
X802852Y803119D1*
X801182Y813663D1*
Y824337D1*
X802852Y834881D1*
X806151Y845033D1*
X810997Y854544D1*
X817271Y863180D1*
X822904Y868958D1*
X817271Y874820D1*
X810997Y883456D1*
X806151Y892967D1*
X802852Y903119D1*
X801182Y913663D1*
X801131Y923024D1*
X763990Y923020D1*
X763996Y812023D1*
X787028Y812027D1*
Y675972D1*
X650973D1*
Y683974D1*
X645033Y681151D1*
X634881Y677852D1*
X624337Y676182D1*
X613663D1*
X603119Y677852D1*
X592967Y681151D1*
X583456Y685997D1*
X574820Y692271D1*
X569042Y697904D1*
X563992Y693022D1*
X563442Y686961D1*
X561794Y680095D1*
X559092Y673572D1*
X555403Y667552D1*
X550807Y662174D1*
X547028Y650282D1*
Y562043D1*
X562028Y562027D1*
Y432517D1*
X733448Y432500D1*
X727077Y439908D1*
X722322Y447669D1*
X718839Y456077D1*
X716714Y464927D1*
X716000Y474000D1*
X716714Y483073D1*
X718839Y491923D1*
X722322Y500331D1*
X727077Y508092D1*
X732988Y515012D1*
X739908Y520923D1*
X747669Y525678D1*
X756077Y529161D1*
X764927Y531286D1*
X774000Y532000D1*
X783073Y531286D1*
X791923Y529161D1*
X800331Y525678D1*
X808092Y520923D1*
X815012Y515012D1*
X820923Y508092D1*
X825678Y500331D1*
X829161Y491923D1*
X831286Y483073D1*
X832000Y474000D1*
X831286Y464927D1*
X829161Y456077D1*
X825678Y447669D1*
X820923Y439908D1*
X815012Y432988D1*
X814477Y432493D1*
X1873489Y432500D1*
X1869896Y436332D1*
X1864547Y443695D1*
X1860415Y451804D1*
X1857603Y460460D1*
X1856179Y469449D1*
Y478551D1*
X1857603Y487540D1*
X1860415Y496196D1*
X1864547Y504305D1*
X1869896Y511668D1*
X1876332Y518104D1*
X1883695Y523453D1*
X1891804Y527585D1*
X1900460Y530397D1*
X1909449Y531821D1*
X1918551D1*
X1927540Y530397D1*
X1936196Y527585D1*
X1944305Y523453D1*
X1951668Y518104D1*
X1958104Y511668D1*
X1963453Y504305D1*
X1967585Y496196D1*
X1970397Y487540D1*
X1971821Y478551D1*
Y469449D1*
X1970397Y460460D1*
X1967585Y451804D1*
X1963453Y443695D1*
X1958104Y436332D1*
X1954477Y432493D1*
X2125970Y432500D1*
X2125973Y562027D1*
X2255483D1*
X2255500Y575989D1*
X2125973Y575972D1*
Y648423D1*
X2110769Y663793D1*
X2106618Y669506D1*
X2103413Y675797D1*
X2101231Y682512D1*
X2100127Y689486D1*
X2099988Y725994D1*
X1975972Y725972D1*
Y797992D1*
X1883698Y797978D1*
X1879613Y788116D1*
X1874035Y779014D1*
X1867103Y770897D1*
X1865096Y769042D1*
X1870729Y763180D1*
X1877003Y754544D1*
X1881849Y745033D1*
X1885148Y734881D1*
X1886818Y724337D1*
Y713663D1*
X1885148Y703119D1*
X1881849Y692967D1*
X1877003Y683456D1*
X1870729Y674820D1*
X1863180Y667271D1*
X1854544Y660997D1*
X1845033Y656151D1*
X1834881Y652852D1*
X1824337Y651182D1*
X1813663D1*
X1803119Y652852D1*
X1792967Y656151D1*
X1783456Y660997D1*
X1774820Y667271D1*
X1768022Y674008D1*
X1497478Y674143D1*
X1490504Y675247D1*
X1483789Y677429D1*
X1477498Y680634D1*
X1471785Y684785D1*
X1449704Y706670D1*
X1440809Y715761D1*
X1436658Y721474D1*
X1433453Y727765D1*
X1431271Y734480D1*
X1430167Y741454D1*
X1430028Y772543D1*
Y801860D1*
X1419000Y800972D1*
X1408358Y801810D1*
X1397978Y804302D1*
X1394748Y805494D1*
X1370951Y805500D1*
X1375579Y797828D1*
X1379392Y788623D1*
X1381718Y778934D1*
X1382500Y769000D1*
X1381718Y759066D1*
X1379392Y749377D1*
X1375579Y740172D1*
X1370373Y731676D1*
X1363901Y724099D1*
X1356324Y717627D1*
X1347828Y712421D1*
X1338623Y708608D1*
X1328934Y706282D1*
X1319136Y705505D1*
X1313999Y700365D1*
X1313996Y587054D1*
X1337028Y587027D1*
Y450972D1*
X1200973D1*
Y458974D1*
X1195033Y456151D1*
X1184881Y452852D1*
X1174337Y451182D1*
X1163663D1*
X1153119Y452852D1*
X1142967Y456151D1*
X1133456Y460997D1*
X1124820Y467271D1*
X1117271Y474820D1*
X1110997Y483456D1*
X1106151Y492967D1*
X1102852Y503119D1*
X1101425Y511611D1*
X1081160Y491358D1*
X1933190Y1113996D2*
X2063996D1*
Y1040469D1*
X2082727Y1021536D1*
X2087062Y1015569D1*
X2090410Y1008998D1*
X2092689Y1001984D1*
X2093843Y994700D1*
X2093988Y963453D1*
Y943465D1*
X2104539Y941000D1*
X2144837D1*
X2147904Y943958D1*
X2142271Y949820D1*
X2135997Y958456D1*
X2131151Y967967D1*
X2127852Y978119D1*
X2126182Y988663D1*
Y999337D1*
X2127852Y1009881D1*
X2131151Y1020033D1*
X2135997Y1029544D1*
X2142271Y1038180D1*
X2149820Y1045729D1*
X2158456Y1052003D1*
X2167967Y1056849D1*
X2178119Y1060148D1*
X2188663Y1061818D1*
X2199337D1*
X2209881Y1060148D1*
X2220033Y1056849D1*
X2229544Y1052003D1*
X2238180Y1045729D1*
X2245729Y1038180D1*
X2252003Y1029544D1*
X2255495Y1022970D1*
X2255500Y1739928D1*
X2252003Y1733456D1*
X2245729Y1724820D1*
X2238180Y1717271D1*
X2229544Y1710997D1*
X2220033Y1706151D1*
X2209881Y1702852D1*
X2199337Y1701182D1*
X2188663D1*
X2178119Y1702852D1*
X2167967Y1706151D1*
X2158456Y1710997D1*
X2149820Y1717271D1*
X2144042Y1722904D1*
X2138180Y1717271D1*
X2129544Y1710997D1*
X2120033Y1706151D1*
X2109881Y1702852D1*
X2099337Y1701182D1*
X2092520Y1701031D1*
X2076106Y1684637D1*
X2083358Y1686190D1*
X2094000Y1687028D1*
X2104642Y1686190D1*
X2115022Y1683698D1*
X2124884Y1679613D1*
X2133986Y1674035D1*
X2142103Y1667103D1*
X2149035Y1658986D1*
X2154613Y1649884D1*
X2158698Y1640022D1*
X2161190Y1629642D1*
X2162028Y1619000D1*
X2161190Y1608358D1*
X2158698Y1597978D1*
X2154613Y1588116D1*
X2149035Y1579014D1*
X2142103Y1570897D1*
X2133986Y1563965D1*
X2124884Y1558387D1*
X2115022Y1554302D1*
X2104642Y1551810D1*
X2094000Y1550972D1*
X2083358Y1551810D1*
X2072978Y1554302D1*
X2063116Y1558387D1*
X2054014Y1563965D1*
X2045897Y1570897D1*
X2044042Y1572904D1*
X2038180Y1567271D1*
X2029544Y1560997D1*
X2020033Y1556151D1*
X2009881Y1552852D1*
X1999337Y1551182D1*
X1988663D1*
X1978119Y1552852D1*
X1967967Y1556151D1*
X1958456Y1560997D1*
X1949820Y1567271D1*
X1942271Y1574820D1*
X1935997Y1583456D1*
X1931151Y1592967D1*
X1927852Y1603119D1*
X1926182Y1613663D1*
Y1624337D1*
X1927852Y1634881D1*
X1928900Y1638596D1*
X1866029Y1638606D1*
X1866000Y1468180D1*
X1870729Y1463180D1*
X1877003Y1454544D1*
X1881849Y1445033D1*
X1885148Y1434881D1*
X1886818Y1424337D1*
Y1413663D1*
X1885148Y1403119D1*
X1881849Y1392967D1*
X1877003Y1383456D1*
X1870729Y1374820D1*
X1863180Y1367271D1*
X1854544Y1360997D1*
X1845033Y1356151D1*
X1834881Y1352852D1*
X1824337Y1351182D1*
X1813663D1*
X1803119Y1352852D1*
X1792967Y1356151D1*
X1783474Y1360987D1*
X1783484Y1288629D1*
X1791086Y1281024D1*
X1797978Y1283698D1*
X1808358Y1286190D1*
X1819000Y1287028D1*
X1829642Y1286190D1*
X1840022Y1283698D1*
X1849884Y1279613D1*
X1858986Y1274035D1*
X1867103Y1267103D1*
X1874035Y1258986D1*
X1879613Y1249884D1*
X1883698Y1240022D1*
X1886190Y1229642D1*
X1887028Y1219000D1*
X1886190Y1208358D1*
X1883698Y1197978D1*
X1879613Y1188116D1*
X1874035Y1179014D1*
X1867103Y1170897D1*
X1865096Y1169042D1*
X1870729Y1163180D1*
X1877003Y1154544D1*
X1881849Y1145033D1*
X1885148Y1134881D1*
X1886818Y1124337D1*
Y1113663D1*
X1885148Y1103119D1*
X1881849Y1092967D1*
X1877003Y1083456D1*
X1870729Y1074820D1*
X1865096Y1069042D1*
X1870729Y1063180D1*
X1877003Y1054544D1*
X1881849Y1045033D1*
X1885148Y1034881D1*
X1886818Y1024337D1*
Y1013663D1*
X1885148Y1003119D1*
X1881849Y992967D1*
X1877003Y983456D1*
X1870729Y974820D1*
X1865096Y969042D1*
X1870729Y963180D1*
X1877003Y954544D1*
X1881849Y945033D1*
X1885148Y934881D1*
X1886818Y924337D1*
Y913663D1*
X1885148Y903119D1*
X1884870Y902135D1*
X1899132Y888034D1*
X2016481Y888012D1*
X2011249Y893468D1*
X2006914Y899435D1*
X2003566Y906006D1*
X2001286Y913020D1*
X2000133Y920304D1*
X1999988Y951551D1*
Y971539D1*
X1990505Y974004D1*
X1924004D1*
Y1113996D1*
X1933190D1*
X2135159Y1987028D2*
X2255483D1*
X2255500Y2000950D1*
X2150973Y2000972D1*
Y2125957D1*
X2125973Y2125972D1*
Y2255483D1*
X1954552Y2255500D1*
X1960923Y2248092D1*
X1965678Y2240331D1*
X1969161Y2231923D1*
X1971286Y2223073D1*
X1972000Y2214000D1*
X1971286Y2204927D1*
X1969161Y2196077D1*
X1965678Y2187669D1*
X1960923Y2179908D1*
X1955012Y2172988D1*
X1948092Y2167077D1*
X1940331Y2162322D1*
X1931923Y2158839D1*
X1923073Y2156714D1*
X1914000Y2156000D1*
X1904927Y2156714D1*
X1896077Y2158839D1*
X1887669Y2162322D1*
X1879908Y2167077D1*
X1872988Y2172988D1*
X1867077Y2179908D1*
X1862322Y2187669D1*
X1858839Y2196077D1*
X1856714Y2204927D1*
X1856000Y2214000D1*
X1856714Y2223073D1*
X1858839Y2231923D1*
X1862322Y2240331D1*
X1867077Y2248092D1*
X1872988Y2255012D1*
X1873523Y2255507D1*
X814511Y2255500D1*
X818104Y2251668D1*
X823453Y2244305D1*
X827585Y2236196D1*
X830397Y2227540D1*
X831821Y2218551D1*
Y2209449D1*
X830397Y2200460D1*
X827585Y2191804D1*
X823453Y2183695D1*
X818104Y2176332D1*
X811668Y2169896D1*
X804305Y2164547D1*
X796196Y2160415D1*
X787540Y2157603D1*
X778551Y2156179D1*
X769449D1*
X760460Y2157603D1*
X751804Y2160415D1*
X743695Y2164547D1*
X736332Y2169896D1*
X729896Y2176332D1*
X724547Y2183695D1*
X720415Y2191804D1*
X717603Y2200460D1*
X716179Y2209449D1*
Y2218551D1*
X717603Y2227540D1*
X720415Y2236196D1*
X724547Y2244305D1*
X729896Y2251668D1*
X733523Y2255507D1*
X562030Y2255500D1*
X562028Y2125972D1*
X432517D1*
X432500Y2112011D1*
X537028Y2112027D1*
Y1975972D1*
X432497D1*
X432500Y687050D1*
X438908Y688444D1*
X442597Y694464D1*
X447183Y699833D1*
X452552Y704419D1*
X458585Y708114D1*
X458387Y713116D1*
X454302Y722978D1*
X451810Y733358D1*
X450972Y744000D1*
X451810Y754642D1*
X454302Y765022D1*
X458387Y774884D1*
X463965Y783986D1*
X470897Y792103D1*
X479014Y799035D1*
X488116Y804613D1*
X497978Y808698D1*
X508358Y811190D1*
X519000Y812028D1*
X529642Y811190D1*
X540022Y808698D1*
X549884Y804613D1*
X558986Y799035D1*
X567103Y792103D1*
X568958Y790096D1*
X574820Y795729D1*
X583456Y802003D1*
X592967Y806849D1*
X603119Y810148D1*
X613663Y811818D1*
X624337D1*
X634881Y810148D1*
X645033Y806849D1*
X650958Y804011D1*
X650973Y812027D1*
X673974D1*
X674143Y945561D1*
X675247Y952535D1*
X677429Y959250D1*
X680635Y965541D1*
X684785Y971254D1*
X706670Y993335D1*
X715762Y1002231D1*
X721475Y1006381D1*
X727766Y1009587D1*
X734481Y1011769D1*
X741455Y1012873D1*
X772544Y1013012D1*
X801216D1*
X801131Y1023024D1*
X542438Y1023159D1*
X535464Y1024263D1*
X528749Y1026445D1*
X522458Y1029651D1*
X516745Y1033801D1*
X494664Y1055686D1*
X485769Y1064777D1*
X481619Y1070490D1*
X478413Y1076781D1*
X476231Y1083496D1*
X475127Y1090470D1*
X474988Y1121559D1*
X475127Y1373514D1*
X476231Y1380488D1*
X478413Y1387203D1*
X481619Y1393494D1*
X485769Y1399207D1*
X501082Y1414716D1*
X501182Y1424337D1*
X502852Y1434881D1*
X506151Y1445033D1*
X510997Y1454544D1*
X517271Y1463180D1*
X524820Y1470729D1*
X533456Y1477003D1*
X542967Y1481849D1*
X553119Y1485148D1*
X563663Y1486818D1*
X574337D1*
X584881Y1485148D1*
X595033Y1481849D1*
X604544Y1477003D1*
X613180Y1470729D1*
X618958Y1465096D1*
X621985Y1468108D1*
X622145Y1516306D1*
X623299Y1523590D1*
X625578Y1530604D1*
X628926Y1537175D1*
X633261Y1543142D1*
X655253Y1565339D1*
X765909Y1675995D1*
X650973Y1675972D1*
Y1683974D1*
X645033Y1681151D1*
X634881Y1677852D1*
X624337Y1676182D1*
X613663D1*
X603119Y1677852D1*
X592967Y1681151D1*
X583456Y1685997D1*
X574820Y1692271D1*
X569042Y1697904D1*
X563180Y1692271D1*
X554544Y1685997D1*
X545033Y1681151D1*
X534881Y1677852D1*
X524337Y1676182D1*
X513663D1*
X503119Y1677852D1*
X492967Y1681151D1*
X483456Y1685997D1*
X474820Y1692271D1*
X467271Y1699820D1*
X460997Y1708456D1*
X456151Y1717967D1*
X452852Y1728119D1*
X451182Y1738663D1*
Y1749337D1*
X452852Y1759881D1*
X456151Y1770033D1*
X460997Y1779544D1*
X467271Y1788180D1*
X474820Y1795729D1*
X483456Y1802003D1*
X492967Y1806849D1*
X503119Y1810148D1*
X513663Y1811818D1*
X524337D1*
X534881Y1810148D1*
X545033Y1806849D1*
X554544Y1802003D1*
X563180Y1795729D1*
X568958Y1790096D1*
X574820Y1795729D1*
X583456Y1802003D1*
X592967Y1806849D1*
X603119Y1810148D1*
X613663Y1811818D1*
X624337D1*
X634881Y1810148D1*
X645033Y1806849D1*
X650958Y1804011D1*
X650973Y1812027D1*
X787028D1*
Y1789026D1*
X850372Y1788996D1*
X930483Y1869117D1*
X931282Y1878934D1*
X933608Y1888623D1*
X937421Y1897828D1*
X942627Y1906324D1*
X949099Y1913901D1*
X956676Y1920373D1*
X965172Y1925579D1*
X974377Y1929392D1*
X984066Y1931718D1*
X994000Y1932500D1*
X1003934Y1931718D1*
X1013623Y1929392D1*
X1022828Y1925579D1*
X1031324Y1920373D1*
X1038901Y1913901D1*
X1045373Y1906324D1*
X1050579Y1897828D1*
X1054392Y1888623D1*
X1056718Y1878934D1*
X1057096Y1875742D1*
X1064319Y1877971D1*
X1072905Y1879350D1*
X1077969Y1882956D1*
X1084260Y1886161D1*
X1090975Y1888343D1*
X1097949Y1889448D1*
X1115510Y1889587D1*
X1108801Y1896469D1*
X1104651Y1902182D1*
X1101445Y1908473D1*
X1099263Y1915188D1*
X1098159Y1922162D1*
X1098020Y1953251D1*
Y1976109D1*
X1088663Y1976182D1*
X1078119Y1977852D1*
X1067967Y1981151D1*
X1058456Y1985997D1*
X1049820Y1992271D1*
X1042271Y1999820D1*
X1035997Y2008456D1*
X1031151Y2017967D1*
X1027852Y2028119D1*
X1026182Y2038663D1*
Y2049337D1*
X1027852Y2059881D1*
X1031151Y2070033D1*
X1032976Y2073993D1*
X990437Y2074004D1*
X961990Y2045522D1*
X961818Y2038663D1*
X960148Y2028119D1*
X956849Y2017967D1*
X952003Y2008456D1*
X945729Y1999820D1*
X938180Y1992271D1*
X929544Y1985997D1*
X920033Y1981151D1*
X909881Y1977852D1*
X899337Y1976182D1*
X888663D1*
X878119Y1977852D1*
X867967Y1981151D1*
X858456Y1985997D1*
X849820Y1992271D1*
X842271Y1999820D1*
X835997Y2008456D1*
X831151Y2017967D1*
X827852Y2028119D1*
X826182Y2038663D1*
Y2049337D1*
X827852Y2059881D1*
X831151Y2070033D1*
X835997Y2079544D1*
X842271Y2088180D1*
X849820Y2095729D1*
X858456Y2102003D1*
X867967Y2106849D1*
X878119Y2110148D1*
X888663Y2111818D1*
X895480Y2111969D1*
X940480Y2156743D1*
X946447Y2161078D1*
X953018Y2164426D1*
X960032Y2166705D1*
X967316Y2167859D1*
X998563Y2168004D1*
X1497688Y2167859D1*
X1504972Y2166705D1*
X1511986Y2164426D1*
X1518557Y2161078D1*
X1524524Y2156743D1*
X1529739Y2151528D1*
X1534074Y2145561D1*
X1537422Y2138990D1*
X1539701Y2131976D1*
X1540855Y2124692D1*
X1541000Y2093194D1*
X1543958Y2090096D1*
X1549820Y2095729D1*
X1558456Y2102003D1*
X1567967Y2106849D1*
X1578119Y2110148D1*
X1588663Y2111818D1*
X1599337D1*
X1609881Y2110148D1*
X1620033Y2106849D1*
X1629544Y2102003D1*
X1638180Y2095729D1*
X1643958Y2090096D1*
X1649820Y2095729D1*
X1658456Y2102003D1*
X1667967Y2106849D1*
X1678119Y2110148D1*
X1688663Y2111818D1*
X1699337D1*
X1709881Y2110148D1*
X1720033Y2106849D1*
X1729544Y2102003D1*
X1738180Y2095729D1*
X1743958Y2090096D1*
X1749820Y2095729D1*
X1758456Y2102003D1*
X1767967Y2106849D1*
X1778119Y2110148D1*
X1788663Y2111818D1*
X1799337D1*
X1809881Y2110148D1*
X1820033Y2106849D1*
X1829544Y2102003D1*
X1838180Y2095729D1*
X1845729Y2088180D1*
X1852003Y2079544D1*
X1856849Y2070033D1*
X1860148Y2059881D1*
X1861818Y2049337D1*
Y2038663D1*
X1860148Y2028119D1*
X1856849Y2017967D1*
X1852003Y2008456D1*
X1845729Y1999820D1*
X1838180Y1992271D1*
X1829544Y1985997D1*
X1820033Y1981151D1*
X1809881Y1977852D1*
X1799337Y1976182D1*
X1788663D1*
X1778119Y1977852D1*
X1767967Y1981151D1*
X1758456Y1985997D1*
X1749820Y1992271D1*
X1744042Y1997904D1*
X1738180Y1992271D1*
X1729544Y1985997D1*
X1720033Y1981151D1*
X1709881Y1977852D1*
X1699337Y1976182D1*
X1688663D1*
X1678119Y1977852D1*
X1667967Y1981151D1*
X1658456Y1985997D1*
X1649820Y1992271D1*
X1644042Y1997904D1*
X1638180Y1992271D1*
X1629544Y1985997D1*
X1620033Y1981151D1*
X1609881Y1977852D1*
X1608141Y1977506D1*
X1607571Y1972333D1*
X1605428Y1963407D1*
X1601915Y1954926D1*
X1597118Y1947099D1*
X1591157Y1940118D1*
X1584176Y1934157D1*
X1576349Y1929360D1*
X1567868Y1925847D1*
X1558942Y1923704D1*
X1549791Y1922984D1*
X1540640Y1923704D1*
X1531714Y1925847D1*
X1523233Y1929360D1*
X1515406Y1934157D1*
X1512827Y1936189D1*
X1512815Y1892907D1*
X1591555Y1892933D1*
Y1765599D1*
X1630204Y1765462D1*
X1637488Y1764308D1*
X1644502Y1762029D1*
X1651074Y1758681D1*
X1654153Y1756621D1*
X1662034Y1760532D1*
X1669048Y1762811D1*
X1676332Y1763965D1*
X1707579Y1764110D1*
X1817168Y1763965D1*
X1824452Y1762811D1*
X1831466Y1760532D1*
X1838037Y1757184D1*
X1844004Y1752849D1*
X1864450Y1732608D1*
X1925975Y1732606D1*
X1925973Y1773422D1*
X1875379Y1823987D1*
X1738801Y1824004D1*
X1731324Y1817627D1*
X1722828Y1812421D1*
X1713623Y1808608D1*
X1703934Y1806282D1*
X1694000Y1805500D1*
X1684066Y1806282D1*
X1674377Y1808608D1*
X1665172Y1812421D1*
X1656676Y1817627D1*
X1649099Y1824099D1*
X1642627Y1831676D1*
X1637421Y1840172D1*
X1633608Y1849377D1*
X1631282Y1859066D1*
X1630500Y1869000D1*
X1631282Y1878934D1*
X1633608Y1888623D1*
X1637421Y1897828D1*
X1642627Y1906324D1*
X1649099Y1913901D1*
X1656676Y1920373D1*
X1665172Y1925579D1*
X1674377Y1929392D1*
X1684066Y1931718D1*
X1694000Y1932500D1*
X1703934Y1931718D1*
X1713623Y1929392D1*
X1722828Y1925579D1*
X1731324Y1920373D1*
X1738801Y1913994D1*
X1897530Y1913857D1*
X1904504Y1912753D1*
X1911219Y1910571D1*
X1917510Y1907365D1*
X1923223Y1903215D1*
X1945304Y1881330D1*
X1989582Y1837052D1*
X2062028Y1837027D1*
Y1829025D1*
X2067967Y1831849D1*
X2078119Y1835148D1*
X2088663Y1836818D1*
X2099337D1*
X2109881Y1835148D1*
X2120033Y1831849D1*
X2129544Y1827003D1*
X2138180Y1820729D1*
X2143958Y1815096D1*
X2149820Y1820729D1*
X2158456Y1827003D1*
X2167967Y1831849D1*
X2178119Y1835148D1*
X2188663Y1836818D1*
X2199337D1*
X2209881Y1835148D1*
X2220033Y1831849D1*
X2229544Y1827003D1*
X2238180Y1820729D1*
X2245729Y1813180D1*
X2252003Y1804544D1*
X2255495Y1797970D1*
X2255500Y1850954D1*
X2125972Y1850972D1*
Y1987028D1*
X2135159D1*
X460159Y962027D2*
X587028D1*
Y825972D1*
X450973D1*
Y962027D1*
X460159D1*
X560159Y1962027D2*
X687028D1*
Y1825972D1*
X550973D1*
Y1962027D1*
X560159D1*
X1156578Y585836D2*
X1163663Y586818D1*
X1174337D1*
X1184881Y585148D1*
X1195033Y581849D1*
X1200958Y579011D1*
X1200973Y587027D1*
X1223974D1*
X1224143Y722530D1*
X1225247Y729504D1*
X1227429Y736219D1*
X1230635Y742510D1*
X1234785Y748223D1*
X1255478Y769112D1*
X1256282Y778934D1*
X1258608Y788623D1*
X1262421Y797828D1*
X1267076Y805498D1*
X1189808Y805500D1*
X1157047Y772716D1*
X1157028Y593528D1*
X1156830Y588527D1*
X1630505Y1569136D2*
X1631316Y1579106D1*
X1604094Y1579122D1*
X1605115Y1572007D1*
Y1562827D1*
X1603679Y1553760D1*
X1600842Y1545030D1*
X1596674Y1536851D1*
X1593089Y1531721D1*
X1630504Y1569138D1*
X1707304Y1089018D2*
X1705745Y1079176D1*
X1702666Y1069700D1*
X1698143Y1060821D1*
X1692286Y1052760D1*
X1688994Y1049199D1*
X1688996Y913036D1*
X1751262Y913012D1*
X1750972Y919000D1*
X1751139Y923232D1*
X1730257Y944305D1*
X1726106Y950018D1*
X1722901Y956309D1*
X1720719Y963024D1*
X1719615Y969998D1*
X1719476Y1001087D1*
Y1199562D1*
X1712504Y1199008D1*
X1599792D1*
X1627349Y1171255D1*
X1631499Y1165542D1*
X1634710Y1159238D1*
X1639018Y1157304D1*
X1648982D1*
X1658824Y1155745D1*
X1668300Y1152666D1*
X1677179Y1148143D1*
X1685240Y1142286D1*
X1692286Y1135240D1*
X1698143Y1127179D1*
X1702666Y1118300D1*
X1705745Y1108824D1*
X1707304Y1098982D1*
Y1089018D1*
X1693504Y1354305D2*
X1688901Y1349099D1*
X1681324Y1342627D1*
X1672828Y1337421D1*
X1663623Y1333608D1*
X1653934Y1331282D1*
X1644000Y1330500D1*
X1634066Y1331282D1*
X1624377Y1333608D1*
X1615172Y1337421D1*
X1606676Y1342627D1*
X1599099Y1349099D1*
X1592627Y1356676D1*
X1587421Y1365172D1*
X1583608Y1374377D1*
X1581282Y1384066D1*
X1580521Y1393475D1*
X1374626Y1393492D1*
X1381788Y1388244D1*
X1388244Y1381788D1*
X1393611Y1374402D1*
X1397756Y1366266D1*
X1400577Y1357583D1*
X1402006Y1348565D1*
Y1339435D1*
X1400577Y1330417D1*
X1397756Y1321734D1*
X1393611Y1313598D1*
X1388244Y1306212D1*
X1381788Y1299756D1*
X1374402Y1294389D1*
X1366266Y1290244D1*
X1362901Y1289002D1*
X1693501Y1289000D1*
X1693492Y1354208D1*
X1646043Y1457420D2*
X1653934Y1456718D1*
X1663623Y1454392D1*
X1672828Y1450579D1*
X1681324Y1445373D1*
X1688901Y1438901D1*
X1693504Y1433695D1*
X1693338Y1504704D1*
X1646117Y1457483D1*
X1020299Y1811255D2*
X1013623Y1808608D1*
X1003934Y1806282D1*
X994136Y1805505D1*
X948706Y1760071D1*
X1047006Y1760091D1*
X1054429Y1767512D1*
X1047410Y1771208D1*
X1039983Y1776603D1*
X1033492Y1783094D1*
X1028097Y1790521D1*
X1023929Y1798700D1*
X1021092Y1807430D1*
X1020340Y1811214D1*
X1057304Y1564018D2*
X1055745Y1554176D1*
X1052666Y1544700D1*
X1048143Y1535821D1*
X1042286Y1527760D1*
X1035240Y1520714D1*
X1027179Y1514857D1*
X1018300Y1510334D1*
X1008824Y1507255D1*
X998982Y1505696D1*
X989018D1*
X979176Y1507255D1*
X969700Y1510334D1*
X960821Y1514857D1*
X952760Y1520714D1*
X945714Y1527760D1*
X939857Y1535821D1*
X935334Y1544700D1*
X932255Y1554176D1*
X930696Y1564018D1*
Y1573982D1*
X932255Y1583824D1*
X935334Y1593300D1*
X939857Y1602179D1*
X945714Y1610240D1*
X952760Y1617286D1*
X960821Y1623143D1*
X969700Y1627666D1*
X979176Y1630745D1*
X989018Y1632304D1*
X998982D1*
X1008824Y1630745D1*
X1018300Y1627666D1*
X1027179Y1623143D1*
X1035240Y1617286D1*
X1042286Y1610240D1*
X1048143Y1602179D1*
X1052666Y1593300D1*
X1055745Y1583824D1*
X1057304Y1573982D1*
Y1564018D1*
X1132304Y1389018D2*
X1130745Y1379176D1*
X1127666Y1369700D1*
X1123143Y1360821D1*
X1117286Y1352760D1*
X1110240Y1345714D1*
X1102179Y1339857D1*
X1093300Y1335334D1*
X1083824Y1332255D1*
X1073982Y1330696D1*
X1064018D1*
X1054176Y1332255D1*
X1044700Y1335334D1*
X1035821Y1339857D1*
X1027760Y1345714D1*
X1020714Y1352760D1*
X1014857Y1360821D1*
X1010334Y1369700D1*
X1007255Y1379176D1*
X1005696Y1389018D1*
Y1398982D1*
X1007255Y1408824D1*
X1010334Y1418300D1*
X1014857Y1427179D1*
X1020714Y1435240D1*
X1027760Y1442286D1*
X1035821Y1448143D1*
X1044700Y1452666D1*
X1054176Y1455745D1*
X1064018Y1457304D1*
X1073982D1*
X1083824Y1455745D1*
X1093300Y1452666D1*
X1102179Y1448143D1*
X1110240Y1442286D1*
X1117286Y1435240D1*
X1123143Y1427179D1*
X1127666Y1418300D1*
X1130745Y1408824D1*
X1132304Y1398982D1*
Y1389018D1*
X1566687Y807784D2*
X1558132Y804302D1*
X1547752Y801810D1*
X1537110Y800972D1*
X1526468Y801810D1*
X1520005Y803198D1*
X1520020Y764032D1*
X1767950Y763996D1*
X1772904Y768958D1*
X1768022Y774008D1*
X1615588Y774143D1*
X1608614Y775247D1*
X1601899Y777429D1*
X1595608Y780635D1*
X1589895Y784785D1*
X1566723Y807761D1*
X1520005Y934802D2*
X1526468Y936190D1*
X1537110Y937028D1*
X1547752Y936190D1*
X1548141Y936113D1*
X1548138Y1123051D1*
X1518777Y1123007D1*
X1519881Y1116033D1*
X1520020Y1084944D1*
Y934840D1*
X736818Y1413663D2*
X736742Y1413020D1*
X921542Y1412873D1*
X928516Y1411769D1*
X935231Y1409587D1*
X941522Y1406381D1*
X947235Y1402231D1*
X969316Y1380346D1*
X1060637Y1289025D1*
X1325043Y1289000D1*
X1317585Y1292157D1*
X1309800Y1296927D1*
X1302857Y1302857D1*
X1296927Y1309800D1*
X1292157Y1317585D1*
X1288663Y1326020D1*
X1286531Y1334898D1*
X1285815Y1344000D1*
X1286531Y1353102D1*
X1288663Y1361980D1*
X1292157Y1370415D1*
X1296927Y1378200D1*
X1302857Y1385143D1*
X1309800Y1391073D1*
X1313405Y1393482D1*
X1266455Y1393631D1*
X1259481Y1394735D1*
X1252766Y1396917D1*
X1246475Y1400123D1*
X1240762Y1404273D1*
X1218681Y1426158D1*
X1209785Y1435250D1*
X1205635Y1440963D1*
X1202429Y1447254D1*
X1200247Y1453969D1*
X1199143Y1460943D1*
X1199004Y1497020D1*
X1195658Y1497035D1*
Y1575801D1*
X1116917Y1575776D1*
Y1640095D1*
X1088769Y1640255D1*
X1081485Y1641409D1*
X1074471Y1643688D1*
X1067899Y1647036D1*
X1061933Y1651371D1*
X1047018Y1666081D1*
X947951Y1666091D1*
X924524Y1642871D1*
X918557Y1638536D1*
X911986Y1635188D1*
X904972Y1632909D1*
X897688Y1631755D1*
X869850Y1631610D1*
X861550Y1626486D1*
X853069Y1622973D1*
X844143Y1620830D1*
X843627Y1620769D1*
X716008Y1493158D1*
X716000Y1468157D1*
X720729Y1463180D1*
X727003Y1454544D1*
X731849Y1445033D1*
X735148Y1434881D1*
X736818Y1424337D1*
Y1413663D1*
X673232Y1251139D2*
X663663Y1251182D1*
X653119Y1252852D1*
X642967Y1256151D1*
X633456Y1260997D1*
X624820Y1267271D1*
X619042Y1272904D1*
X615096Y1269042D1*
X620729Y1263180D1*
X627003Y1254544D1*
X631849Y1245033D1*
X635148Y1234881D1*
X636818Y1224337D1*
Y1213663D1*
X635148Y1203119D1*
X631849Y1192967D1*
X627003Y1183456D1*
X620729Y1174820D1*
X613180Y1167271D1*
X604544Y1160997D1*
X595033Y1156151D1*
X584881Y1152852D1*
X574337Y1151182D1*
X564976Y1151131D1*
X564980Y1113017D1*
X801212Y1113012D1*
X801182Y1124337D1*
X801499Y1127010D1*
X796474Y1129651D1*
X790761Y1133801D1*
X768680Y1155686D1*
X673248Y1251118D1*
X736869Y1323024D2*
X736861Y1314768D1*
X838623Y1213011D1*
X1009417Y1213012D1*
X931116Y1291278D1*
X927003Y1283456D1*
X920729Y1274820D1*
X913180Y1267271D1*
X904544Y1260997D1*
X895033Y1256151D1*
X884881Y1252852D1*
X874337Y1251182D1*
X863663D1*
X853119Y1252852D1*
X842967Y1256151D1*
X833456Y1260997D1*
X824820Y1267271D1*
X817271Y1274820D1*
X810997Y1283456D1*
X806151Y1292967D1*
X802852Y1303119D1*
X801182Y1313663D1*
X801131Y1323024D1*
X736905Y1323020D1*
X2052285Y1494901D2*
X2194902D1*
Y1343098D1*
X2043099D1*
Y1494901D1*
X2052285D1*
X2194668Y1213045D2*
X2193967Y1207126D1*
X2192804Y1201281D1*
X2191187Y1195545D1*
X2189124Y1189954D1*
X2186629Y1184541D1*
X2183717Y1179342D1*
X2180406Y1174386D1*
X2176716Y1169706D1*
X2172671Y1165329D1*
X2168294Y1161284D1*
X2163614Y1157594D1*
X2158658Y1154283D1*
X2153459Y1151371D1*
X2148046Y1148876D1*
X2142455Y1146813D1*
X2136719Y1145196D1*
X2130874Y1144033D1*
X2124955Y1143332D1*
X2119000Y1143098D1*
X2113045Y1143332D1*
X2107126Y1144033D1*
X2101281Y1145196D1*
X2095545Y1146813D1*
X2089954Y1148876D1*
X2084541Y1151371D1*
X2079342Y1154283D1*
X2074386Y1157594D1*
X2069706Y1161284D1*
X2065329Y1165329D1*
X2061284Y1169706D1*
X2057594Y1174386D1*
X2054283Y1179342D1*
X2051371Y1184541D1*
X2048876Y1189954D1*
X2046813Y1195545D1*
X2045196Y1201281D1*
X2044033Y1207126D1*
X2043332Y1213045D1*
X2043098Y1219000D1*
X2043332Y1224955D1*
X2044033Y1230874D1*
X2045196Y1236719D1*
X2046813Y1242455D1*
X2048876Y1248046D1*
X2051371Y1253459D1*
X2054283Y1258658D1*
X2057594Y1263614D1*
X2061284Y1268294D1*
X2065329Y1272671D1*
X2069706Y1276716D1*
X2074386Y1280406D1*
X2079342Y1283717D1*
X2084541Y1286629D1*
X2089954Y1289124D1*
X2095545Y1291187D1*
X2101281Y1292804D1*
X2107126Y1293967D1*
X2113045Y1294668D1*
X2119000Y1294902D1*
X2124955Y1294668D1*
X2130874Y1293967D1*
X2136719Y1292804D1*
X2142455Y1291187D1*
X2148046Y1289124D1*
X2153459Y1286629D1*
X2158658Y1283717D1*
X2163614Y1280406D1*
X2168294Y1276716D1*
X2172671Y1272671D1*
X2176716Y1268294D1*
X2180406Y1263614D1*
X2183717Y1258658D1*
X2186629Y1253459D1*
X2189124Y1248046D1*
X2191187Y1242455D1*
X2192804Y1236719D1*
X2193967Y1230874D1*
X2194668Y1224955D1*
X2194902Y1219000D1*
X2194668Y1213045D1*
X1260846Y1776735D2*
Y1733192D1*
X1268996Y1731829D1*
X1277726Y1728992D1*
X1285905Y1724824D1*
X1292669Y1719951D1*
X1388003Y1719941D1*
X1387980Y1753863D1*
X1383796Y1747217D1*
X1377835Y1740236D1*
X1370854Y1734275D1*
X1363027Y1729478D1*
X1354546Y1725965D1*
X1345620Y1723822D1*
X1336469Y1723102D1*
X1327318Y1723822D1*
X1318392Y1725965D1*
X1309911Y1729478D1*
X1302084Y1734275D1*
X1295103Y1740236D1*
X1289142Y1747217D1*
X1284345Y1755044D1*
X1280832Y1763525D1*
X1280223Y1765683D1*
X1272438Y1768967D1*
X1264611Y1773764D1*
X1260858Y1776741D1*
X1698473Y1669114D2*
X1716030Y1668975D1*
X1723004Y1667871D1*
X1729719Y1665689D1*
X1736010Y1662484D1*
X1741722Y1658333D1*
X1763804Y1636448D1*
X1770314Y1629937D1*
X1772000Y1630286D1*
X1772145Y1663310D1*
X1772581Y1666989D1*
X1767548Y1670110D1*
X1699476D1*
D17*
X919000Y519000D3*
D18*
X1019000D3*
D19*
X1994000Y1044000D3*
D20*
Y944000D3*
D17*
X2194000Y1919000D3*
D18*
X2094000D3*
D17*
X2044000Y794000D3*
D18*
X1944000D3*
D17*
X519000Y894000D3*
D18*
X619000D3*
D17*
Y1894000D3*
D18*
X719000D3*
D17*
X2219000Y2069000D3*
D18*
X1919000D3*
D17*
X2194000Y644000D3*
D18*
X1894000D3*
D17*
X479000Y619000D3*
D18*
X779000D3*
D17*
X469000Y2044000D3*
D18*
X769000D3*
X1169000Y519000D3*
D17*
X1269000D3*
X2194000Y1619000D3*
D18*
X2094000D3*
X1994000D3*
D17*
X2194000Y2194000D3*
D18*
X2094000D3*
D17*
X2194000Y494000D3*
D18*
X2094000D3*
D17*
X494000D3*
D18*
X594000D3*
D17*
X494000Y2194000D3*
D18*
X594000D3*
D17*
X1994000Y1769000D3*
D18*
X2094000D3*
X2194000D3*
D17*
Y794000D3*
D18*
Y894000D3*
Y994000D3*
D17*
X719000Y744000D3*
D18*
X619000D3*
X519000D3*
D17*
X719000Y1744000D3*
D18*
X619000D3*
X519000D3*
D15*
X1694000Y1869000D3*
D21*
Y1569000D3*
D15*
X1644000Y1094000D3*
D21*
Y1394000D3*
D15*
X994000Y1869000D3*
D21*
Y1569000D3*
D15*
X1069000Y1094000D3*
D21*
Y1394000D3*
D15*
X1019000Y769000D3*
D21*
X1319000D3*
D22*
X1419000Y869000D3*
X1537110D3*
X669000Y1419000D3*
Y1319000D3*
Y1219000D3*
X569000D3*
Y1319000D3*
Y1419000D3*
X1694000Y2044000D3*
X1794000D3*
X894000D3*
X994000D3*
X1094000D3*
X1194000D3*
X1294000D3*
X1394000D3*
X1494000D3*
X1594000D3*
D23*
X2119000Y1419000D3*
D24*
Y1319000D3*
Y1219000D3*
D22*
X1819000Y719000D3*
Y819000D3*
Y919000D3*
Y1019000D3*
Y1119000D3*
Y1219000D3*
Y1319000D3*
Y1419000D3*
X869000Y719000D3*
Y819000D3*
Y919000D3*
Y1019000D3*
Y1119000D3*
Y1219000D3*
Y1319000D3*
Y1419000D3*
D26*
X1188882Y1844591D3*
Y1813094D3*
Y1781598D3*
Y1750102D3*
Y1718606D3*
Y1687110D3*
Y1655614D3*
Y1624118D3*
D27*
X1244000Y1569000D3*
X1275496D3*
X1306992D3*
X1338488D3*
X1369984D3*
X1401480D3*
X1432976D3*
X1464472D3*
D26*
X1519591Y1624118D3*
Y1655614D3*
Y1687110D3*
Y1718606D3*
Y1750102D3*
Y1781598D3*
Y1813094D3*
Y1844591D3*
D27*
X1464472Y1899709D3*
X1432976D3*
X1401480D3*
X1369984D3*
X1338488D3*
X1306992D3*
X1275496D3*
X1244000D3*
M02*
