G04 DipTrace 3.2.0.1*
G04 TopPaste.gbr*
%MOIN*%
G04 #@! TF.FileFunction,Paste,Top*
G04 #@! TF.Part,Single*
%ADD42R,0.011685X0.058929*%
%ADD44R,0.058929X0.011685*%
%FSLAX26Y26*%
G04*
G70*
G90*
G75*
G01*
G04 TopPaste*
%LPD*%
D44*
X1188882Y1844591D3*
Y1813094D3*
Y1781598D3*
Y1750102D3*
Y1718606D3*
Y1687110D3*
Y1655614D3*
Y1624118D3*
D42*
X1244000Y1569000D3*
X1275496D3*
X1306992D3*
X1338488D3*
X1369984D3*
X1401480D3*
X1432976D3*
X1464472D3*
D44*
X1519591Y1624118D3*
Y1655614D3*
Y1687110D3*
Y1718606D3*
Y1750102D3*
Y1781598D3*
Y1813094D3*
Y1844591D3*
D42*
X1464472Y1899709D3*
X1432976D3*
X1401480D3*
X1369984D3*
X1338488D3*
X1306992D3*
X1275496D3*
X1244000D3*
M02*
